Division,WeightClassKg,Place,Name,Team,BodyweightKg,Best3SquatKg,Best3BenchKg,Best3DeadliftKg,TotalKg,Equipment,Event,Sex
Boys,52,1,Austin Mullenix,Sadler S & S Cons,51.48,151.95,79.38,149.69,381.02,Single-ply,SBD,M
Boys,52,2,Brandon Horst,Sanger,49.9,113.4,72.57,122.47,308.44,Single-ply,SBD,M
Boys,52,3,Michael Ellis,Nocona,46.99,97.52,54.43,106.59,258.55,Single-ply,SBD,M
Boys,52,4,Jared Larra,Prosper,43.91,61.23,34.02,86.18,181.44,Single-ply,SBD,M
Boys,52,5,Jimmy Esparza,Pottsboro,50.53,61.23,38.56,81.65,181.44,Single-ply,SBD,M
Boys,56,1,Landry Hoskins,Sanger,52.25,129.27,77.11,138.35,344.73,Single-ply,SBD,M
Boys,56,2,Chase Barnett,Howe,55.38,124.74,65.77,145.15,335.66,Single-ply,SBD,M
Boys,56,3,Finlee Rudicile,Farmersville,54.07,117.93,79.38,129.27,326.59,Single-ply,SBD,M
Boys,56,4,Kason Huschke,Bells,53.52,104.33,61.23,136.08,301.64,Single-ply,SBD,M
Boys,56,5,Michael Mixon,Anna,53.52,104.33,52.16,122.47,278.96,Single-ply,SBD,M
Boys,56,DQ,Lance Jones,Van Alstyne,54.7,115.67,61.23,,,Single-ply,SBD,M
Boys,60,1,Dalton Waller,Princeton,59.87,161.03,88.45,188.24,437.72,Single-ply,SBD,M
Boys,60,2,Jesus Menjivar,Sanger,59.24,165.56,86.18,172.37,424.11,Single-ply,SBD,M
Boys,60,3,Kyle Humphries,Sherman,58.24,149.69,99.79,142.88,392.36,Single-ply,SBD,M
Boys,60,4,Tyler Watts,Sanger,59.06,129.27,90.72,163.29,383.29,Single-ply,SBD,M
Boys,60,5,Eli Ersch,Pottsboro,59.33,136.08,77.11,140.61,353.8,Single-ply,SBD,M
Boys,60,6,Jorge Morales,Celina,55.97,127.01,83.91,124.74,335.66,Single-ply,SBD,M
Boys,60,7,Zach Pruitt,Callisburg,56.25,102.06,68.04,149.69,319.78,Single-ply,SBD,M
Boys,60,8,Gage Ahrens,Prosper,58.88,97.52,52.16,124.74,274.42,Single-ply,SBD,M
Boys,67.5,1,Shaun Hudson,Callisburg,64.5,183.7,106.59,183.7,474,Single-ply,SBD,M
Boys,67.5,2,Mike Acevedo,Anna,65.86,154.22,113.4,161.03,428.64,Single-ply,SBD,M
Boys,67.5,3,Josue Hernandez,Anna,65.32,154.22,99.79,161.03,415.04,Single-ply,SBD,M
Boys,67.5,4,Javier Garcia #3,Pottsboro,65.77,149.69,90.72,170.1,410.5,Single-ply,SBD,M
Boys,67.5,5,Parker Holman,Celina,65.59,138.35,83.91,172.37,394.63,Single-ply,SBD,M
Boys,67.5,6,Tyler Richards,Nocona,63.96,142.88,81.65,167.83,392.36,Single-ply,SBD,M
Boys,67.5,7,Kevin Romero,Sherman,66.32,124.74,95.25,156.49,376.48,Single-ply,SBD,M
Boys,67.5,8,Alek Fisher,Farmersville,62.23,117.93,86.18,145.15,349.27,Single-ply,SBD,M
Boys,67.5,9,Keatyn Eitelman,Pottsboro,60.96,108.86,72.57,120.2,301.64,Single-ply,SBD,M
Boys,67.5,DQ,Eli Mosby,Van Alstyne,62.32,,,,,Single-ply,SBD,M
Boys,67.5,DQ,Nick Ellis,Prosper,66.22,,,,,Single-ply,SBD,M
Boys,67.5,DQ,Jackson Haines,Prosper,63.32,131.54,83.91,,,Single-ply,SBD,M
Boys,75,1,Dusty Burris,Princeton,72.85,195.04,165.56,229.06,589.67,Single-ply,SBD,M
Boys,75,2,Michael Wallace,Sherman,74.39,199.58,115.67,206.38,521.63,Single-ply,SBD,M
Boys,75,3,Devante Clayton,Sherman,74.21,190.51,120.2,206.38,517.1,Single-ply,SBD,M
Boys,75,4,Issac Doggett,Prosper,72.21,185.97,111.13,213.19,510.29,Single-ply,SBD,M
Boys,75,5,Jaden Matthews,Howe,73.57,208.65,106.59,192.78,508.02,Single-ply,SBD,M
Boys,75,6,Phillip Mayfield,Princeton,71.12,185.97,120.2,197.31,503.49,Single-ply,SBD,M
Boys,75,7,Joseph Brennan,Howe,74.3,197.31,111.13,195.04,503.49,Single-ply,SBD,M
Boys,75,8,Trevor Coglon,Bells,74.3,170.1,124.74,195.04,489.88,Single-ply,SBD,M
Boys,75,9,Alex Flores,Princeton,73.94,172.37,111.13,195.04,478.54,Single-ply,SBD,M
Boys,75,10,Albert Navarrete,Ponder,70.4,179.17,95.25,192.78,467.2,Single-ply,SBD,M
Boys,75,11,Jacob Jeffers,Pottsboro,69.94,176.9,97.52,163.29,437.72,Single-ply,SBD,M
Boys,75,12,Robert Arqueros,Farmersville,71.4,142.88,102.06,185.97,430.91,Single-ply,SBD,M
Boys,75,13,Rafael Llamas,Celina,72.76,147.42,111.13,163.29,421.84,Single-ply,SBD,M
Boys,75,14,Bryce Jurca,Blue Ridge,70.49,156.49,88.45,170.1,415.04,Single-ply,SBD,M
Boys,75,15,Hunter McCoy,Farmersville,71.58,154.22,83.91,158.76,396.89,Single-ply,SBD,M
Boys,75,16,Adrian De La Cruz,Pottsboro,72.57,145.15,79.38,154.22,378.75,Single-ply,SBD,M
Boys,75,17,Austin Moore,Van Alstyne,70.58,124.74,72.57,174.63,371.95,Single-ply,SBD,M
Boys,75,18,Peyton Lowe,Gunter,72.03,142.88,79.38,142.88,365.14,Single-ply,SBD,M
Boys,75,19,Connor Smith,Sadler S & S Cons,68.31,138.35,74.84,140.61,353.8,Single-ply,SBD,M
Boys,75,20,Gage Davis,Gunter,69.76,111.13,74.84,111.13,297.1,Single-ply,SBD,M
Boys,75,DQ,Christian Olowokere,Celina,68.4,124.74,,,,Single-ply,SBD,M
Boys,75,DQ,Amyri Cox,Anna,74.84,181.44,104.33,,,Single-ply,SBD,M
Boys,82.5,1,Tanner Hartsfield,Howe,81.6,226.8,136.08,233.6,596.47,Single-ply,SBD,M
Boys,82.5,2,Michael Hymel,Howe,80.47,208.65,136.08,222.26,566.99,Single-ply,SBD,M
Boys,82.5,3,Billy Goff,Sanger,81.37,217.72,136.08,172.37,526.17,Single-ply,SBD,M
Boys,82.5,4,Lxamri Bolden,Princeton,77.93,195.04,111.13,188.24,494.42,Single-ply,SBD,M
Boys,82.5,5,Isaac Graham,Princeton,80.83,181.44,104.33,206.38,492.15,Single-ply,SBD,M
Boys,82.5,6,Sam Snyder,Celina,82.1,192.78,111.13,188.24,492.15,Single-ply,SBD,M
Boys,82.5,7,Sylar Saenz,Sanger,79.11,170.1,113.4,195.04,478.54,Single-ply,SBD,M
Boys,82.5,8,Jesus Duran,Farmersville,77.75,172.37,92.99,190.51,455.86,Single-ply,SBD,M
Boys,82.5,9,Brandon Perdue,Gunter,80.01,165.56,111.13,163.29,439.98,Single-ply,SBD,M
Boys,82.5,10,Zach Lowe,Gunter,78.83,156.49,92.99,183.7,433.18,Single-ply,SBD,M
Boys,82.5,11,Tristan Reilly,Sanger,78.11,149.69,90.72,158.76,399.16,Single-ply,SBD,M
Boys,82.5,12,Michael Clark,Gunter,76.02,147.42,95.25,136.08,378.75,Single-ply,SBD,M
Boys,82.5,13,Alex Esparza,Pottsboro,76.38,145.15,72.57,158.76,376.48,Single-ply,SBD,M
Boys,82.5,14,Taylor Williams,Pottsboro,78.38,72.57,45.36,102.06,219.99,Single-ply,SBD,M
Boys,82.5,DQ,Mason Riggs,Howe,79.74,190.51,,,,Single-ply,SBD,M
Boys,90,1,Jose Hernandez,Princeton,87.91,233.6,147.42,238.14,619.15,Single-ply,SBD,M
Boys,90,2,Dylan Robertson,Pottsboro,85.73,199.58,122.47,188.24,510.29,Single-ply,SBD,M
Boys,90,3,Austin Lee,Howe,87.72,176.9,140.61,192.78,510.29,Single-ply,SBD,M
Boys,90,4,Ian Murphy,Prosper,83.01,195.04,113.4,181.44,489.88,Single-ply,SBD,M
Boys,90,5,Rasheed Readas,Anna,83.64,174.63,102.06,204.12,480.81,Single-ply,SBD,M
Boys,90,6,Christopher Tracy,Anna,86.27,188.24,117.93,167.83,474,Single-ply,SBD,M
Boys,90,7,Brandon Hubert,Pottsboro,88.09,163.29,90.72,190.51,444.52,Single-ply,SBD,M
Boys,90,8,Seth Baucum,Callisburg,82.46,158.76,77.11,183.7,419.57,Single-ply,SBD,M
Boys,90,9,Brooks Coffman,Prosper,85.64,156.49,106.59,156.49,419.57,Single-ply,SBD,M
Boys,90,10,Dartanyon Cardoza,Gunter,82.83,138.35,70.31,142.88,351.53,Single-ply,SBD,M
Boys,90,11,Jake Reed,Gunter,83.82,133.81,86.18,122.47,342.46,Single-ply,SBD,M
Boys,90,12,John Cecil,Bells,89.54,120.2,77.11,136.08,333.39,Single-ply,SBD,M
Boys,90,13,Will Roane,Gunter,87.09,136.08,79.38,111.13,326.59,Single-ply,SBD,M
Boys,90,DQ,James Hirons,Van Alstyne,86.36,131.54,83.91,,,Single-ply,SBD,M
Boys,90,DQ,Spencer May,Anna,88.99,161.03,117.93,,,Single-ply,SBD,M
Boys,100,1,Chase Harvey,Howe,94.03,192.78,129.27,219.99,542.04,Single-ply,SBD,M
Boys,100,2,Harrison Cornelius,Anna,92.62,204.12,136.08,199.58,539.77,Single-ply,SBD,M
Boys,100,3,Colby Hammond,Callisburg,95.98,204.12,95.25,213.19,512.56,Single-ply,SBD,M
Boys,100,4,Isiah Montoya,Princeton,96.43,176.9,142.88,174.63,494.42,Single-ply,SBD,M
Boys,100,5,Jonathan Padilla,Celina,95.71,181.44,122.47,185.97,489.88,Single-ply,SBD,M
Boys,100,6,Jaden Powell,Bells,98.25,158.76,131.54,195.04,485.34,Single-ply,SBD,M
Boys,100,7,Tanner Chambers,Callisburg,90.9,176.9,124.74,176.9,478.54,Single-ply,SBD,M
Boys,100,8,Nathan Duffee,Howe,97.16,176.9,102.06,195.04,474,Single-ply,SBD,M
Boys,100,9,Aiden Carr,Prosper,95.62,172.37,113.4,181.44,467.2,Single-ply,SBD,M
Boys,100,10,Jacob Howell,Howe,98.97,179.17,102.06,183.7,464.93,Single-ply,SBD,M
Boys,100,11,Jarrett Ryon,Bells,91.35,161.03,120.2,181.44,462.66,Single-ply,SBD,M
Boys,100,12,Mason Holzer,Sanger,92.08,179.17,106.59,163.29,449.06,Single-ply,SBD,M
Boys,100,13,Aiden Carter,Princeton,93.62,161.03,113.4,165.56,439.98,Single-ply,SBD,M
Boys,100,14,Maxwell Nazarko,Van Alstyne,91.35,170.1,99.79,158.76,428.64,Single-ply,SBD,M
Boys,100,15,Eric Nichols,Van Alstyne,93.44,170.1,124.74,115.67,410.5,Single-ply,SBD,M
Boys,100,16,Angel Medina,Bells,93.8,136.08,102.06,163.29,401.43,Single-ply,SBD,M
Boys,100,17,Quaylynn Burkes,Sanger,96.07,149.69,106.59,142.88,399.16,Single-ply,SBD,M
Boys,100,18,Dawson Maxwell,Van Alstyne,96.8,145.15,86.18,142.88,374.21,Single-ply,SBD,M
Boys,100,19,Logan Jones,Gunter,91.9,124.74,97.52,142.88,365.14,Single-ply,SBD,M
Boys,100,20,Canyon Rohrer,Callisburg,99.34,136.08,74.84,136.08,347,Single-ply,SBD,M
Boys,100,DQ,Brody Wiggins,Blue Ridge,95.53,,,,,Single-ply,SBD,M
Boys,100,DQ,Gavin Ritchie,Van Alstyne,93.17,,,,,Single-ply,SBD,M
Boys,100,DQ,Kylar Pendergraft,Nocona,93.35,226.8,104.33,197.31,,Single-ply,SBD,M
Boys,110,1,Alejandro Rangel,Celina,107.86,272.16,147.42,233.6,653.17,Single-ply,SBD,M
Boys,110,2,Jacob Taylor,Bells,108.77,249.48,161.03,229.06,639.57,Single-ply,SBD,M
Boys,110,3,Nathan Omayebu,Sherman,104.51,249.48,151.95,229.06,630.49,Single-ply,SBD,M
Boys,110,4,Colten Enloe,Gunter,108.05,188.24,142.88,183.7,514.83,Single-ply,SBD,M
Boys,110,5,Alec Narro,Tom Bean,106.05,195.04,133.81,183.7,512.56,Single-ply,SBD,M
Boys,110,6,Chris Garrison,Howe,101.02,195.04,117.93,183.7,496.68,Single-ply,SBD,M
Boys,110,7,Ben Kopenski,Prosper,106.96,176.9,113.4,190.51,480.81,Single-ply,SBD,M
Boys,110,8,Cayson Miller,Van Alstyne,100.61,163.29,136.08,158.76,458.13,Single-ply,SBD,M
Boys,110,9,Sawyer Callies,Van Alstyne,104.96,183.7,81.65,170.1,435.45,Single-ply,SBD,M
Boys,110,10,Jacob Batson,Farmersville,105.96,142.88,83.91,172.37,399.16,Single-ply,SBD,M
Boys,110,DQ,Kade McCarty,Tom Bean,100.06,,,,,Single-ply,SBD,M
Boys,125,1,Dillion Garcia,Anna,113.85,222.26,147.42,213.19,582.87,Single-ply,SBD,M
Boys,125,2,Hayden Hayes,Sherman,116.66,208.65,136.08,233.6,578.33,Single-ply,SBD,M
Boys,125,3,Fletcher Six,Nocona,110.4,226.8,120.2,217.72,564.72,Single-ply,SBD,M
Boys,125,4,Tekarious Walton,Sherman,123.1,192.78,129.27,210.92,532.97,Single-ply,SBD,M
Boys,125,5,Rudy Vasquez,Sherman,119.48,204.12,124.74,195.04,523.9,Single-ply,SBD,M
Boys,125,6,Deuce Glasker,Nocona,111.13,181.44,104.33,151.95,437.72,Single-ply,SBD,M
Boys,125,7,Jarron Ing,Howe,123.88,183.7,102.06,136.08,421.84,Single-ply,SBD,M
Boys,125,8,Reagan Spencer,Gunter,119.39,,79.38,120.2,199.58,Single-ply,BD,M
Boys,125+,1,Mike Grimes,Princeton,162.93,249.48,204.12,240.4,694,Single-ply,SBD,M
Boys,125+,2,Josh Schnitker,Sherman,142.79,283.5,170.1,238.14,691.73,Single-ply,SBD,M
Boys,125+,3,Gage McCarty,Sanger,125.92,251.74,172.37,229.06,653.17,Single-ply,SBD,M
Boys,125+,4,Damon Lippert,Sherman,139.89,249.48,170.1,219.99,639.57,Single-ply,SBD,M
Boys,125+,5,Cruz Tobar,Sherman,166.56,219.99,142.88,183.7,546.58,Single-ply,SBD,M
Boys,125+,6,Brady York,Nocona,126.64,188.24,127.01,195.04,510.29,Single-ply,SBD,M
Boys,125+,7,Koby Williams,Pottsboro,131.63,181.44,120.2,176.9,478.54,Single-ply,SBD,M
